<svg xmlns="http://www.w3.org/2000/svg" viewBox="3475 12027 202 200">
  <defs>
    <style>
      .cls-1 {
        fill: #c4c4c4;
      }

      .cls-2 {
        fill: #e32232;
      }

      .cls-3 {
        fill: #0833cb;
      }
    </style>
  </defs>
  <g id="noun_749592_cc" transform="translate(3824 12302.8)">
    <g id="Group_122" data-name="Group 122" transform="translate(-349 -275.8)">
      <path id="Path_19" data-name="Path 19" class="cls-1" d="M127.172,22.8a1.255,1.255,0,0,0-1.272,1.274v19.9a1.272,1.272,0,1,0,2.544,0v-19.9A1.255,1.255,0,0,0,127.172,22.8Z" transform="translate(73.556 11.595)"/>
      <path id="Path_20" data-name="Path 20" class="cls-1" d="M127.172,39.4a1.255,1.255,0,0,0-1.272,1.274v6.369a1.272,1.272,0,1,0,2.544,0V40.674A1.171,1.171,0,0,0,127.172,39.4Z" transform="translate(73.556 21.428)"/>
      <path id="Path_21" data-name="Path 21" class="cls-1" d="M2.582,51.733a1.247,1.247,0,0,0-1.749,0,1.251,1.251,0,0,0,0,1.752l2.7,2.707a1.214,1.214,0,0,0,.8.318,1.214,1.214,0,0,0,.8-.318,1.251,1.251,0,0,0,0-1.752Z" transform="translate(-0.475 28.522)"/>
      <path id="Path_22" data-name="Path 22" class="cls-1" d="M8.082,57.233a1.238,1.238,0,1,0-1.749,1.752L9.2,61.692a1.152,1.152,0,0,0,1.59,0,1.251,1.251,0,0,0,0-1.752Z" transform="translate(2.771 31.779)"/>
      <path id="Path_23" data-name="Path 23" class="cls-1" d="M3.536,57.189.833,59.9a1.251,1.251,0,0,0,0,1.752,1.214,1.214,0,0,0,.8.318,1.214,1.214,0,0,0,.8-.318l2.7-2.707a1.251,1.251,0,0,0,0-1.752A1.437,1.437,0,0,0,3.536,57.189Z" transform="translate(-0.475 31.824)"/>
      <path id="Path_24" data-name="Path 24" class="cls-1" d="M10.785,51.733a1.247,1.247,0,0,0-1.749,0l-2.7,2.707a1.251,1.251,0,0,0,0,1.752,1.152,1.152,0,0,0,1.59,0l2.862-2.707A1.251,1.251,0,0,0,10.785,51.733Z" transform="translate(2.771 28.522)"/>
      <path id="Path_25" data-name="Path 25" class="cls-1" d="M96.485,81.24l-2.7-2.707a1.238,1.238,0,0,0-1.749,1.752l2.7,2.707a1.152,1.152,0,0,0,1.59,0A1.137,1.137,0,0,0,96.485,81.24Z" transform="translate(53.355 44.397)"/>
      <path id="Path_26" data-name="Path 26" class="cls-1" d="M99.282,84.133a1.238,1.238,0,0,0-1.749,1.752l2.7,2.707a1.152,1.152,0,0,0,1.59,0,1.251,1.251,0,0,0,0-1.752Z" transform="translate(56.601 47.714)"/>
      <path id="Path_27" data-name="Path 27" class="cls-1" d="M94.736,84.133l-2.7,2.707a1.251,1.251,0,0,0,0,1.752,1.152,1.152,0,0,0,1.59,0l2.7-2.707a1.251,1.251,0,0,0,0-1.752A1.058,1.058,0,0,0,94.736,84.133Z" transform="translate(53.355 47.714)"/>
      <path id="Path_28" data-name="Path 28" class="cls-1" d="M102.085,78.533a1.247,1.247,0,0,0-1.749,0l-2.7,2.707a1.251,1.251,0,0,0,0,1.752,1.152,1.152,0,0,0,1.59,0l2.7-2.707A1.45,1.45,0,0,0,102.085,78.533Z" transform="translate(56.66 44.397)"/>
      <path id="Path_29" data-name="Path 29" class="cls-1" d="M47.682,118.333a1.238,1.238,0,0,0-1.749,1.752l2.7,2.707a1.152,1.152,0,0,0,1.59,0,1.251,1.251,0,0,0,0-1.752Z" transform="translate(26.145 67.972)"/>
      <path id="Path_30" data-name="Path 30" class="cls-1" d="M53.182,123.933a1.238,1.238,0,1,0-1.749,1.752l2.7,2.707a1.152,1.152,0,0,0,1.59,0,1.251,1.251,0,0,0,0-1.752Z" transform="translate(29.391 71.29)"/>
      <path id="Path_31" data-name="Path 31" class="cls-1" d="M48.636,123.933l-2.7,2.707a1.251,1.251,0,0,0,0,1.752,1.152,1.152,0,0,0,1.59,0l2.7-2.707a1.251,1.251,0,0,0,0-1.752A1.058,1.058,0,0,0,48.636,123.933Z" transform="translate(26.145 71.29)"/>
      <path id="Path_32" data-name="Path 32" class="cls-1" d="M54.236,118.333l-2.7,2.707a1.251,1.251,0,0,0,0,1.752,1.152,1.152,0,0,0,1.59,0l2.7-2.707a1.251,1.251,0,0,0,0-1.752A1.061,1.061,0,0,0,54.236,118.333Z" transform="translate(29.45 67.972)"/>
      <path id="Path_33" data-name="Path 33" class="cls-1" d="M113.6,10.792a1.152,1.152,0,0,0,1.59,0,1.251,1.251,0,0,0,0-1.752l-2.7-2.707a1.238,1.238,0,0,0-1.749,1.752Z" transform="translate(64.392 1.629)"/>
      <path id="Path_34" data-name="Path 34" class="cls-1" d="M119.2,16.292a1.152,1.152,0,0,0,1.59,0,1.251,1.251,0,0,0,0-1.752l-2.7-2.707a1.238,1.238,0,0,0-1.749,1.752Z" transform="translate(67.698 4.886)"/>
      <path id="Path_35" data-name="Path 35" class="cls-1" d="M111.787,16.71a1.214,1.214,0,0,0,.8-.318l2.7-2.707a1.238,1.238,0,0,0-1.749-1.752l-2.7,2.707a1.251,1.251,0,0,0,0,1.752A2.258,2.258,0,0,0,111.787,16.71Z" transform="translate(64.451 4.946)"/>
      <path id="Path_36" data-name="Path 36" class="cls-1" d="M117.287,11.11a1.214,1.214,0,0,0,.8-.318l2.7-2.707a1.238,1.238,0,0,0-1.749-1.752l-2.7,2.707a1.251,1.251,0,0,0,0,1.752A1.167,1.167,0,0,0,117.287,11.11Z" transform="translate(67.698 1.629)"/>
      <path id="Path_37" data-name="Path 37" class="cls-1" d="M82.484,26.8a5.892,5.892,0,1,0,5.884,5.892A6.089,6.089,0,0,0,82.484,26.8Zm0,9.395a3.5,3.5,0,1,1,3.5-3.5A3.642,3.642,0,0,1,82.484,36.195Z" transform="translate(44.457 13.964)"/>
      <path id="Path_38" data-name="Path 38" class="cls-1" d="M15.484,118.7a5.892,5.892,0,1,0,5.884,5.892A5.874,5.874,0,0,0,15.484,118.7Zm0,9.236a3.5,3.5,0,1,1,3.5-3.5A3.532,3.532,0,0,1,15.484,127.936Z" transform="translate(4.911 68.402)"/>
      <path id="Path_39" data-name="Path 39" class="cls-1" d="M58.372,9.948H79.84a1.255,1.255,0,0,0,1.272-1.274A1.171,1.171,0,0,0,79.84,7.4H58.372a1.274,1.274,0,0,0,0,2.548Z" transform="translate(32.947 2.473)"/>
      <path id="Path_40" data-name="Path 40" class="cls-1" d="M76.431,9.948h7a1.23,1.23,0,0,0,1.113-1.274A1.255,1.255,0,0,0,83.269,7.4h-7A1.255,1.255,0,0,0,75,8.674,1.393,1.393,0,0,0,76.431,9.948Z" transform="translate(43.512 2.473)"/>
      <path id="Path_41" data-name="Path 41" class="cls-1" d="M86.32,12.1H71.372A1.255,1.255,0,0,0,70.1,13.374a1.171,1.171,0,0,0,1.272,1.274H86.32a1.274,1.274,0,0,0,0-2.548Z" transform="translate(40.62 5.257)"/>
      <path id="Path_42" data-name="Path 42" class="cls-1" d="M64.172,12.1A1.255,1.255,0,0,0,62.9,13.374a1.171,1.171,0,0,0,1.272,1.274h4.771a1.255,1.255,0,0,0,1.272-1.274A1.171,1.171,0,0,0,68.943,12.1Z" transform="translate(36.371 5.257)"/>
      <path id="Path_43" data-name="Path 43" class="cls-1" d="M80.013,109.874A1.255,1.255,0,0,0,78.74,108.6H57.272A1.255,1.255,0,0,0,56,109.874a1.171,1.171,0,0,0,1.272,1.274H78.74A1.171,1.171,0,0,0,80.013,109.874Z" transform="translate(32.298 62.419)"/>
      <path id="Path_44" data-name="Path 44" class="cls-1" d="M82.269,108.7h-7A1.255,1.255,0,0,0,74,109.974a1.171,1.171,0,0,0,1.272,1.274h7a1.274,1.274,0,0,0,0-2.548Z" transform="translate(42.922 62.478)"/>
      <path id="Path_45" data-name="Path 45" class="cls-1" d="M85.22,113.3H70.272a1.274,1.274,0,0,0,0,2.548H85.22a1.255,1.255,0,0,0,1.272-1.274C86.334,113.937,85.857,113.3,85.22,113.3Z" transform="translate(39.971 65.203)"/>
      <path id="Path_46" data-name="Path 46" class="cls-1" d="M67.943,113.3H63.172a1.274,1.274,0,0,0,0,2.548h4.771a1.255,1.255,0,0,0,1.272-1.274C69.056,113.937,68.579,113.3,67.943,113.3Z" transform="translate(35.78 65.203)"/>
      <path id="Path_47" data-name="Path 47" class="cls-2" d="M145.485,93.211l-4.771-.955-.954-4.777a1.63,1.63,0,0,0-.8-.955,1.236,1.236,0,0,0-1.272.318L128.946,95.6a.985.985,0,0,0-.318,1.115l.954,4.936-5.566,5.573a20.875,20.875,0,0,0-6.361-4.14,22.192,22.192,0,0,0-8.428-1.752,19.929,19.929,0,0,0-8.11,1.592c-.159,0-.318.159-.477.159h0a14.533,14.533,0,0,0-2.226,1.115,26.05,26.05,0,0,0-4.135,3.185,15.848,15.848,0,0,0-1.59,1.752,30.88,30.88,0,0,0-3.34,5.414,22.273,22.273,0,0,0-1.749,8.439,21.308,21.308,0,0,0,1.59,8.28,22.328,22.328,0,0,0,4.612,7.006,24.972,24.972,0,0,0,7.156,4.936,22.192,22.192,0,0,0,8.428,1.752h0a22.982,22.982,0,0,0,8.11-1.592,17.9,17.9,0,0,0,5.566-3.344,10.292,10.292,0,0,0,1.431-1.274l.318-.318a19.193,19.193,0,0,0,3.18-4.14,9.733,9.733,0,0,0,1.113-2.229h0c0-.159.159-.159.159-.318a22.272,22.272,0,0,0,1.749-8.439,21.308,21.308,0,0,0-1.59-8.28,1.211,1.211,0,1,0-2.226.955,19.382,19.382,0,0,1,1.431,7.325,18.837,18.837,0,0,1-1.59,7.643l-.159.159h0c-.318.637-.636,1.433-.954,2.07a20.72,20.72,0,0,1-2.862,3.662l-.318.318a9.1,9.1,0,0,1-1.272,1.115,19.553,19.553,0,0,1-4.93,3.025,19.312,19.312,0,0,1-7.315,1.433h0a17.539,17.539,0,0,1-7.474-1.592,17.334,17.334,0,0,1-6.361-4.3,18.472,18.472,0,0,1-4.135-6.21,19.382,19.382,0,0,1-1.431-7.325,17.6,17.6,0,0,1,1.59-7.484,23.76,23.76,0,0,1,2.862-4.777c.477-.478.954-1.115,1.431-1.592a20.7,20.7,0,0,1,3.658-2.866l1.908-.955h0c.159,0,.318-.159.477-.159a19.312,19.312,0,0,1,7.315-1.433,20.12,20.12,0,0,1,7.474,1.433,16.13,16.13,0,0,1,5.566,3.662l-5.884,5.892a7.74,7.74,0,0,0-2.862-1.752,8.537,8.537,0,0,0-3.339-.8h-.954a12.261,12.261,0,0,0-2.385.318c-.636.159-1.113.318-1.749.478a9.471,9.471,0,0,0-3.339,2.229l-.159.159A7.485,7.485,0,0,0,100,117.574a17.375,17.375,0,0,0-.954,1.752,10.3,10.3,0,0,0-.8,4.3,11.975,11.975,0,0,0,.8,4.14,10.122,10.122,0,0,0,2.226,3.5,8.158,8.158,0,0,0,3.658,2.389,9.562,9.562,0,0,0,4.135.8,11.931,11.931,0,0,0,4.135-.8,17.34,17.34,0,0,0,1.749-.955h.159a12.138,12.138,0,0,0,1.749-1.274l.318-.318a12.272,12.272,0,0,0,2.226-3.344,7.769,7.769,0,0,0,.636-1.752,12.308,12.308,0,0,0,.318-2.389v-.955a1.2,1.2,0,1,0-2.385.159v.637a7.762,7.762,0,0,1-.159,1.911l-.477,1.433a9.1,9.1,0,0,1-1.749,2.548l-.159.159a8.82,8.82,0,0,1-1.272.955h0c-.477.318-.954.478-1.431.8a7.571,7.571,0,0,1-3.18.637,8.3,8.3,0,0,1-3.34-.637,9.024,9.024,0,0,1-2.862-1.911,7.194,7.194,0,0,1-1.749-2.707,7.6,7.6,0,0,1-.636-3.185,8.326,8.326,0,0,1,.636-3.344,6.457,6.457,0,0,1,.8-1.433,9.185,9.185,0,0,1,1.272-1.592,7.936,7.936,0,0,1,2.7-1.752,10.943,10.943,0,0,0,1.272-.478,7.732,7.732,0,0,1,1.908-.159h.636a6.66,6.66,0,0,1,2.544.637,9.014,9.014,0,0,1,2.067,1.274l-6.2,6.21a1.251,1.251,0,0,0,0,1.752,1.152,1.152,0,0,0,1.59,0l21.15-21.338,4.93.955h.159a1.214,1.214,0,0,0,.8-.318l8.746-8.758a1.24,1.24,0,0,0,.318-1.274A.728.728,0,0,0,145.485,93.211Zm-9.382,8.6-4.135-.8-.8-4.14,6.679-6.688.636,3.344a1.435,1.435,0,0,0,.954.955l3.339.637Z" transform="translate(50.949 49.305)"/>
      <path id="Path_48" data-name="Path 48" class="cls-3" d="M47.352,86.225a1.05,1.05,0,0,0-.954.159.876.876,0,0,0-.477.8c-.636,4.936-5.725,8.6-11.927,8.6S22.7,92.116,22.067,87.18a1.354,1.354,0,0,0-.477-.8,2.014,2.014,0,0,0-.954-.159,23.8,23.8,0,0,0-16.22,24.2l.954,21.656A1.23,1.23,0,0,0,6.642,133.2H61.028a1.35,1.35,0,0,0,1.272-1.115l1.431-21.656h0A24.054,24.054,0,0,0,47.352,86.225Zm13.835,24.045h0l-1.272,20.541H7.755L6.483,110.269A21.147,21.147,0,0,1,19.841,89.091c1.431,5.414,7.315,9.236,13.994,9.236,6.838,0,12.563-3.981,14.153-9.236A21.23,21.23,0,0,1,61.187,110.269Z" transform="translate(1.826 49.126)"/>
      <path id="Path_49" data-name="Path 49" class="cls-3" d="M29.216,62.8C19.833,62.8,12.2,70.921,12.2,80.953s7.633,18.153,17.016,18.153,17.016-8.121,17.016-18.153S38.6,62.8,29.216,62.8Zm0,33.917c-8.11,0-14.63-7.006-14.63-15.764s6.52-15.764,14.63-15.764,14.63,7.006,14.63,15.764C43.846,89.552,37.326,96.717,29.216,96.717Z" transform="translate(6.446 35.289)"/>
      <path id="Path_50" data-name="Path 50" class="cls-3" d="M88.852,64.225a1.05,1.05,0,0,0-.954.159.876.876,0,0,0-.477.8c-.636,4.936-5.725,8.6-11.927,8.6S64.2,70.116,63.567,65.18a1.354,1.354,0,0,0-.477-.8,2.015,2.015,0,0,0-.954-.159,23.8,23.8,0,0,0-16.22,24.2l.954,21.656a1.23,1.23,0,0,0,1.272,1.115h54.386a1.35,1.35,0,0,0,1.272-1.115l1.431-21.656h0A24.444,24.444,0,0,0,88.852,64.225Zm13.835,24.045h0l-1.272,20.541H49.255L47.983,88.269A21.147,21.147,0,0,1,61.341,67.091c1.431,5.414,7.315,9.236,13.994,9.236,6.838,0,12.563-3.981,14.153-9.236A21.23,21.23,0,0,1,102.687,88.269Z" transform="translate(26.321 36.094)"/>
      <path id="Path_51" data-name="Path 51" class="cls-3" d="M70.716,77.106c9.382,0,17.016-8.121,17.016-18.153S80.1,40.8,70.716,40.8,53.7,48.921,53.7,58.953C53.542,68.985,61.334,77.106,70.716,77.106Zm0-33.917c8.11,0,14.63,7.006,14.63,15.764s-6.52,15.764-14.63,15.764-14.63-7.006-14.63-15.764S62.606,43.189,70.716,43.189Z" transform="translate(30.94 22.257)"/>
      <path id="Path_52" data-name="Path 52" class="cls-3" d="M89.483,89.2h54.386a1.35,1.35,0,0,0,1.272-1.115l1.431-21.656h0a23.923,23.923,0,0,0-16.22-24.2,1.05,1.05,0,0,0-.954.159.876.876,0,0,0-.477.8c-.636,4.936-5.725,8.6-11.927,8.6s-11.291-3.662-11.927-8.6a1.354,1.354,0,0,0-.477-.8,2.015,2.015,0,0,0-.954-.159,23.8,23.8,0,0,0-16.22,24.2l.954,21.656A1.088,1.088,0,0,0,89.483,89.2Zm13.2-44.268c1.431,5.414,7.315,9.236,13.994,9.236,6.838,0,12.563-3.981,14.153-9.236A21.5,21.5,0,0,1,144.187,66.11h0l-1.272,20.541H90.6L89.324,66.11A21.416,21.416,0,0,1,102.682,44.932Z" transform="translate(50.816 23.062)"/>
      <path id="Path_53" data-name="Path 53" class="cls-3" d="M112.116,55.106c9.382,0,17.016-8.121,17.016-18.153S121.5,18.8,112.116,18.8,95.1,26.921,95.1,36.953,102.733,55.106,112.116,55.106Zm0-33.917c8.11,0,14.63,7.006,14.63,15.764s-6.52,15.764-14.63,15.764-14.63-7.006-14.63-15.764S104.164,21.189,112.116,21.189Z" transform="translate(55.376 9.225)"/>
      <path id="Path_54" data-name="Path 54" class="cls-3" d="M42.272,25.3a1.2,1.2,0,0,0-.159,2.389h8.428A1.2,1.2,0,0,0,50.7,25.3Z" transform="translate(23.444 13.076)"/>
      <path id="Path_55" data-name="Path 55" class="cls-3" d="M29.472,17.928a1.255,1.255,0,0,0,1.272-1.274V8.374a1.272,1.272,0,1,0-2.544,0v8.439A1.35,1.35,0,0,0,29.472,17.928Z" transform="translate(15.889 2.295)"/>
      <path id="Path_56" data-name="Path 56" class="cls-3" d="M23.553,18.676a1.307,1.307,0,0,0,.954.637.955.955,0,0,0,.636-.159,1.138,1.138,0,0,0,.477-1.592l-4.294-7.325a1.174,1.174,0,1,0-2.067,1.115Z" transform="translate(10.518 3.776)"/>
      <path id="Path_57" data-name="Path 57" class="cls-3" d="M13.221,18.529l7.315,4.14c.159.159.318.159.636.159a1.2,1.2,0,0,0,1.113-.637,1.1,1.1,0,0,0-.477-1.592l-7.315-4.14a1.1,1.1,0,0,0-1.59.478A.993.993,0,0,0,13.221,18.529Z" transform="translate(6.697 7.745)"/>
      <path id="Path_58" data-name="Path 58" class="cls-3" d="M21.023,26.415A1.135,1.135,0,0,0,19.751,25.3H11.322a1.06,1.06,0,0,0-1.113,1.274,1.135,1.135,0,0,0,1.272,1.115H19.91A1.23,1.23,0,0,0,21.023,26.415Z" transform="translate(5.256 13.076)"/>
      <path id="Path_59" data-name="Path 59" class="cls-3" d="M20.551,31.759l-7.315,4.3a1.138,1.138,0,0,0-.477,1.592,1.338,1.338,0,0,0,1.113.637.955.955,0,0,0,.636-.159l7.315-4.3a1.138,1.138,0,0,0,.477-1.592A1.278,1.278,0,0,0,20.551,31.759Z" transform="translate(6.682 16.808)"/>
      <path id="Path_60" data-name="Path 60" class="cls-3" d="M48.364,36.059l-7.315-4.3a1.175,1.175,0,0,0-1.113,2.07l7.315,4.3a.955.955,0,0,0,.636.159A1.2,1.2,0,0,0,49,37.651,1.375,1.375,0,0,0,48.364,36.059Z" transform="translate(22.441 16.808)"/>
      <path id="Path_61" data-name="Path 61" class="cls-3" d="M40.513,22.829a.955.955,0,0,0,.636-.159l7.315-4.14a1.175,1.175,0,0,0-1.113-2.07L40.036,20.6a1.138,1.138,0,0,0-.477,1.592A.989.989,0,0,0,40.513,22.829Z" transform="translate(22.5 7.745)"/>
      <path id="Path_62" data-name="Path 62" class="cls-3" d="M35.436,19.154a.955.955,0,0,0,.636.159.872.872,0,0,0,.954-.637l4.294-7.325a1.174,1.174,0,1,0-2.067-1.115l-4.294,7.325A1.138,1.138,0,0,0,35.436,19.154Z" transform="translate(19.785 3.776)"/>
      <path id="Path_63" data-name="Path 63" class="cls-3" d="M36.588,15.015A17.157,17.157,0,0,0,18.3,32.212a17.942,17.942,0,0,0,1.749,7.643.156.156,0,0,0,.159.159c.477.637.8,1.433,1.272,2.07h0a51.515,51.515,0,0,1,5.407,14.809,42.977,42.977,0,0,1,.636,4.459v.318a4.17,4.17,0,0,0,3.658,2.548h8.746a4.033,4.033,0,0,0,3.817-3.185c.159-.955.159-1.752.318-2.548a48.166,48.166,0,0,1,6.043-17.2c.159-.159.159-.318.318-.637v-.159A17.486,17.486,0,0,0,52.649,31.1,17.414,17.414,0,0,0,36.588,15.015ZM41.2,60.875a1.528,1.528,0,0,1-1.431,1.115H31.022a1.259,1.259,0,0,1-1.272-.8,42.979,42.979,0,0,0-.636-4.459,19.826,19.826,0,0,0-.636-2.548H42.313a31.835,31.835,0,0,0-.8,4.14A13.954,13.954,0,0,0,41.2,60.875Zm7.156-21.338h0c-.159.318-.318.478-.477.8A53.035,53.035,0,0,0,42.949,51.8H27.841a45.669,45.669,0,0,0-4.453-10.669h0a23.577,23.577,0,0,0-1.272-2.07,15.781,15.781,0,0,1-1.59-6.529A14.271,14.271,0,0,1,25.3,21.7a14.442,14.442,0,0,1,11.132-3.981A14.91,14.91,0,0,1,50.264,31.735,17.123,17.123,0,0,1,48.356,39.537Z" transform="translate(10.046 6.96)"/>
      <path id="Path_64" data-name="Path 64" class="cls-3" d="M33.261,18.7a11.94,11.94,0,0,0-11.45,10.669,1.24,1.24,0,0,0,.954,1.433h.159a1.064,1.064,0,0,0,1.113-.955c1.272-8.439,8.746-8.6,9.064-8.6a1.255,1.255,0,0,0,1.272-1.274A1.05,1.05,0,0,0,33.261,18.7Z" transform="translate(12.1 9.166)"/>
      <path id="Path_65" data-name="Path 65" class="cls-3" d="M37.113,82.41c.636.8.954,5.414.636,9.873a2.265,2.265,0,0,0,.318.955c.159.318.477.318.8.318,1.431,0,3.021-1.752,6.679-6.051a34.823,34.823,0,0,1,4.453-4.777,41.159,41.159,0,1,0-12.881-.318Zm7-78.822a38.414,38.414,0,0,1,5.407,76.433c-1.272.159-2.7,1.752-5.884,5.573-.954,1.274-2.385,2.866-3.5,4.14.159-6.21-.636-9.554-2.544-9.873A38.424,38.424,0,0,1,44.11,3.589Z" transform="translate(1.251 -1.2)"/>
    </g>
  </g>
</svg>
